Time Series Lab 2
…
# Check relationship duration for a few participants
long_sample <- long_data %>%
  filter(id %in% c(15, 264)) %>%  # Replace with specific ids
  select(id, week, relationship_duration)

print(long_sample)

# A tibble: 34 × 3
      id  week relationship_duration
   <dbl> <dbl>                 <dbl>
 1    15     0                  361.
 2    15     1                  363.
 3    15     2                  365.
 4    15     3                  367.
 5    15     4                  369.
 6    15     5                  371.
 7    15     6                  373.
 8    15     7                    0 
 9    15     8                   NA 
10    15     9                   NA 
# ℹ 24 more rows
…
   0    1 
1297   58 

Inspecting the distribution: Check how these events are distributed across participants and time periods to ensure meaningful patterns:

long_data %>%
  group_by(id) %>%
  summarize(
    restarts = sum(contraception_restart, na.rm = TRUE),
    stops = sum(contraception_stop, na.rm = TRUE),
    switches = sum(contraception_switch, na.rm = TRUE)
  ) %>%
  arrange(desc(restarts), desc(stops), desc(switches))  # Arrange by multiple columns

# A tibble: 275 × 4
      id restarts stops switches
   <dbl>    <dbl> <dbl>    <dbl>
 1    59        3     1        2
 2   270        3     0        3
 3    64        2     1        1
 4   175        2     1        1
 5    56        2     1        0
 6    95        2     1        0
 7   148        2     1        0
 8   255        2     1        0
 9    69        2     0        2
10   100        2     0        2
# ℹ 265 more rows
…
